{
  "kind": "collectionType",
  "collectionName": "visitasvehiculos",
  "info": {
    "name": "visitasvehiculo",
    "description": ""
  },
  "options": {
    "increments": true,
    "timestamps": true,
    "draftAndPublish": false
  },
  "attributes": {
    "portero_ingreso": {
      "plugin": "admin",
      "model": "user"
    },
    "portero_salida": {
      "plugin": "admin",
      "model": "user"
    },
    "responsable": {
      "plugin": "admin",
      "model": "user"
    },
    "conductor": {
      "type": "string"
    },
    "notas": {
      "type": "text"
    },
    "duracion": {
      "type": "biginteger"
    },
    "status": {
      "type": "string"
    },
    "conjunto": {
      "model": "conjunto"
    },
    "idvisitante": {
      "model": "vehiculo"
    },
    "estado": {
      "type": "string"
    },
    "tipo": {
      "type": "integer",
      "default": 1,
      "max": 3,
      "min": 1
    },
    "idresidente": {
      "model": "vahiculoresidente"
    }
  }
}
